
        {
        "name": "C07",
        "children": [
            
            {
            "name": "outer_front_cover",
            "children": [
            
            {
            "name": "1r",
            "children": [
            
            {
            "name": "1v",
            "children": [
            
            {
            "name": "2r",
            "children": [
            
            {
            "name": "3r",
            "children": [
            
            {
            "name": "6r",
            "children": [
            
            {
            "name": "7r",
            "children": [
            
            {
            "name": "8r",
            "children": [
            
            {
            "name": "9r",
            "children": [
            
            {
            "name": "10r",
            "children": [
            
            {
            "name": "11r",
            "children": [
            
            {
            "name": "12r",
            "children": [
            
            {
            "name": "13r",
            "children": [
            
            {
            "name": "14r",
            "children": [
            
            {
            "name": "15r",
            "children": [
            
            {
            "name": "60v",
            "children": [
            
            {
            "name": "61r",
            "children": [
            
            {
            "name": "61v",
            "children": [
            
            {
            "name": "62v",
            "children": [
            
        ]
        }
    