<kml>
<Placemark>
<address>Altenstein</address>
<description>&lt;script&gt;alert("Hi.");&lt;/script&gt;</description>
<name>Altenstein (Liebenstein, Wartburgkreis)</name>
<Point>
<coordinates>+010.349166, +050.835000</coordinates>
</Point>
<TimeStamp>
<when/>
</TimeStamp>
</Placemark>
</kml>